…
First tidy datatset
-------------------

The subject column is propely labled as it was the only column without a
proper label. Now we add a vector for activity labels that corresponds
with the *label\_num* variable. Then we drop the *label\_num* variable
as to not be redundant.

    colnames(data)[1] <- "subject"
    data_tidy1 <- data %>% 
          mutate(label = activity_labels[[2]][label_num]) %>% 
          select(-(label_num))
    print(tbl_df(data_tidy1))

    ## # A tibble: 10,299 x 81
    ##    subject `tBodyAcc-mean(~ `tBodyAcc-mean(~ `tBodyAcc-mean(~ `tBodyAcc-std()~
    ##      <int>            <dbl>            <dbl>            <dbl>            <dbl>
    ##  1       1            0.289         -0.0203            -0.133           -0.995
    ##  2       1            0.278         -0.0164            -0.124           -0.998
    ##  3       1            0.280         -0.0195            -0.113           -0.995
    ##  4       1            0.279         -0.0262            -0.123           -0.996
    ##  5       1            0.277         -0.0166            -0.115           -0.998
    ##  6       1            0.277         -0.0101            -0.105           -0.997
    ##  7       1            0.279         -0.0196            -0.110           -0.997
    ##  8       1            0.277         -0.0305            -0.125           -0.997
    ##  9       1            0.277         -0.0218            -0.121           -0.997
    ## 10       1            0.281         -0.00996           -0.106           -0.995
    ## # ... with 10,289 more rows, and 76 more variables: `tBodyAcc-std()-Y` <dbl>,
    ## #   `tBodyAcc-std()-Z` <dbl>, `tGravityAcc-mean()-X` <dbl>,
    ## #   `tGravityAcc-mean()-Y` <dbl>, `tGravityAcc-mean()-Z` <dbl>,
    ## #   `tGravityAcc-std()-X` <dbl>, `tGravityAcc-std()-Y` <dbl>,
    ## #   `tGravityAcc-std()-Z` <dbl>, `tBodyAccJerk-mean()-X` <dbl>,
    ## #   `tBodyAccJerk-mean()-Y` <dbl>, `tBodyAccJerk-mean()-Z` <dbl>,
    ## #   `tBodyAccJerk-std()-X` <dbl>, `tBodyAccJerk-std()-Y` <dbl>,
    ## #   `tBodyAccJerk-std()-Z` <dbl>, `tBodyGyro-mean()-X` <dbl>,
    ## #   `tBodyGyro-mean()-Y` <dbl>, `tBodyGyro-mean()-Z` <dbl>,
…
Second tidy dataset
-------------------

First we group the dataset by subject and label so the mean will be
taken across variables that share group headers. Next we collapse the
table to display the means with the summarize function, and then we
arrange by subject.

    data_tidy2 <- data_tidy1 %>%
          group_by(subject, label) %>% 
          summarize_all(mean) %>% 
          arrange(subject)
    print(data_tidy2)

    ## # A tibble: 180 x 81
    ## # Groups:   subject [30]
    ##    subject label `tBodyAcc-mean(~ `tBodyAcc-mean(~ `tBodyAcc-mean(~
    ##      <int> <fct>            <dbl>            <dbl>            <dbl>
    ##  1       1 LAYI~            0.222         -0.0405           -0.113 
    ##  2       1 SITT~            0.261         -0.00131          -0.105 
    ##  3       1 STAN~            0.279         -0.0161           -0.111 
    ##  4       1 WALK~            0.277         -0.0174           -0.111 
    ##  5       1 WALK~            0.289         -0.00992          -0.108 
    ##  6       1 WALK~            0.255         -0.0240           -0.0973
    ##  7       2 LAYI~            0.281         -0.0182           -0.107 
    ##  8       2 SITT~            0.277         -0.0157           -0.109 
    ##  9       2 STAN~            0.278         -0.0184           -0.106 
    ## 10       2 WALK~            0.276         -0.0186           -0.106 
    ## # ... with 170 more rows, and 76 more variables: `tBodyAcc-std()-X` <dbl>,
    ## #   `tBodyAcc-std()-Y` <dbl>, `tBodyAcc-std()-Z` <dbl>,
    ## #   `tGravityAcc-mean()-X` <dbl>, `tGravityAcc-mean()-Y` <dbl>,
    ## #   `tGravityAcc-mean()-Z` <dbl>, `tGravityAcc-std()-X` <dbl>,
    ## #   `tGravityAcc-std()-Y` <dbl>, `tGravityAcc-std()-Z` <dbl>,
    ## #   `tBodyAccJerk-mean()-X` <dbl>, `tBodyAccJerk-mean()-Y` <dbl>,
    ## #   `tBodyAccJerk-mean()-Z` <dbl>, `tBodyAccJerk-std()-X` <dbl>,
    ## #   `tBodyAccJerk-std()-Y` <dbl>, `tBodyAccJerk-std()-Z` <dbl>,
    ## #   `tBodyGyro-mean()-X` <dbl>, `tBodyGyro-mean()-Y` <dbl>,
…
